<svg width="48px" height="48px" viewBox="0 0 48 48" version="1.1" xmlns="http://www.w3.org/2000/svg">
    <title>icon-insta</title>
    <g id="icon-insta" stroke="none" stroke-width="1" fill="none" fill-rule="evenodd">
        <path d="M24,10.884 C28.272,10.884 28.7786667,10.9 30.4666667,10.9773333 C34.8026667,11.1746667 36.828,13.232 37.0253333,17.536 C37.1026667,19.2226667 37.1173333,19.7293333 37.1173333,24.0013333 C37.1173333,28.2746667 37.1013333,28.78 37.0253333,30.4666667 C36.8266667,34.7666667 34.8066667,36.828 30.4666667,37.0253333 C28.7786667,37.1026667 28.2746667,37.1186667 24,37.1186667 C19.728,37.1186667 19.2213333,37.1026667 17.5346667,37.0253333 C13.188,36.8266667 11.1733333,34.76 10.976,30.4653333 C10.8986667,28.7786667 10.8826667,28.2733333 10.8826667,24 C10.8826667,19.728 10.9,19.2226667 10.976,17.5346667 C11.1746667,13.232 13.1946667,11.1733333 17.5346667,10.976 C19.2226667,10.9 19.728,10.884 24,10.884 L24,10.884 Z M24,8 C19.6546667,8 19.1106667,8.01866667 17.404,8.096 C11.5933333,8.36266667 8.364,11.5866667 8.09733333,17.4026667 C8.01866667,19.1106667 8,19.6546667 8,24 C8,28.3453333 8.01866667,28.8906667 8.096,30.5973333 C8.36266667,36.408 11.5866667,39.6373333 17.4026667,39.904 C19.1106667,39.9813333 19.6546667,40 24,40 C28.3453333,40 28.8906667,39.9813333 30.5973333,39.904 C36.4026667,39.6373333 39.64,36.4133333 39.9026667,30.5973333 C39.9813333,28.8906667 40,28.3453333 40,24 C40,19.6546667 39.9813333,19.1106667 39.904,17.404 C39.6426667,11.5986667 36.4146667,8.364 30.5986667,8.09733333 C28.8906667,8.01866667 28.3453333,8 24,8 Z M24,15.784 C19.4626667,15.784 15.784,19.4626667 15.784,24 C15.784,28.5373333 19.4626667,32.2173333 24,32.2173333 C28.5373333,32.2173333 32.216,28.5386667 32.216,24 C32.216,19.4626667 28.5373333,15.784 24,15.784 Z M24,29.3333333 C21.0546667,29.3333333 18.6666667,26.9466667 18.6666667,24 C18.6666667,21.0546667 21.0546667,18.6666667 24,18.6666667 C26.9453333,18.6666667 29.3333333,21.0546667 29.3333333,24 C29.3333333,26.9466667 26.9453333,29.3333333 24,29.3333333 Z M32.5413333,13.54 C31.48,13.54 30.62,14.4 30.62,15.46 C30.62,16.52 31.48,17.38 32.5413333,17.38 C33.6013333,17.38 34.46,16.52 34.46,15.46 C34.46,14.4 33.6013333,13.54 32.5413333,13.54 Z" fill="" fill-rule="nonzero"></path>
    </g>
</svg>