<svg width="48px" height="48px" viewBox="0 0 48 48" version="1.1" xmlns="http://www.w3.org/2000/svg">
    <title>icon-fb</title>
    <g id="icon-fb" stroke="none" stroke-width="1" fill="none" fill-rule="evenodd">
        <path d="M20,18.6666667 L16,18.6666667 L16,24 L20,24 L20,40 L26.6666667,40 L26.6666667,24 L31.5226667,24 L32,18.6666667 L26.6666667,18.6666667 L26.6666667,16.444 C26.6666667,15.1706667 26.9226667,14.6666667 28.1533333,14.6666667 L32,14.6666667 L32,8 L26.9226667,8 C22.128,8 20,10.1106667 20,14.1533333 L20,18.6666667 Z" fill="" fill-rule="nonzero"></path>
    </g>
</svg>