<svg width="48px" height="48px" viewBox="0 0 48 48" version="1.1" xmlns="http://www.w3.org/2000/svg">
    <title>icon-linkedin</title>
    <g id="icon-linkedin" stroke="none" stroke-width="1" fill="none" fill-rule="evenodd">
        <path d="M16.81,12.9166667 C16.81,14.5278333 15.515,15.8333333 13.9166667,15.8333333 C12.3183333,15.8333333 11.0233333,14.5278333 11.0233333,12.9166667 C11.0233333,11.3066667 12.3183333,10 13.9166667,10 C15.515,10 16.81,11.3066667 16.81,12.9166667 Z M16.8333333,18.1666667 L11,18.1666667 L11,36.8333333 L16.8333333,36.8333333 L16.8333333,18.1666667 Z M26.1456667,18.1666667 L20.3496667,18.1666667 L20.3496667,36.8333333 L26.1468333,36.8333333 L26.1468333,27.0345 C26.1468333,21.5861667 33.1806667,21.1405 33.1806667,27.0345 L33.1806667,36.8333333 L39,36.8333333 L39,25.0138333 C39,15.8205 28.591,16.1553333 26.1456667,20.6808333 L26.1456667,18.1666667 Z" id="Shape" fill="#FFFFFF" fill-rule="nonzero"></path>
    </g>
</svg>